<svg width="56" height="40" viewBox="0 0 56 40" fill="none" xmlns="http://www.w3.org/2000/svg">
<path d="M54.3833 8.13281L24.0497 38.4656C23.1397 39.3756 21.9451 39.8336 20.7505 39.8336C19.5559 39.8336 18.3613 39.3756 17.4513 38.4656L2.28491 23.2992C0.459717 21.4749 0.459717 18.5251 2.28491 16.7008C4.10925 14.8756 7.05811 14.8756 8.8833 16.7008L20.7505 28.568L47.7849 1.53442C49.6093 -0.290772 52.5581 -0.290772 54.3833 1.53442C56.2076 3.35876 56.2076 6.30762 54.3833 8.13281Z" fill="#FAFAFA"/>
</svg>
