<svg width="145" height="160" viewBox="0 0 145 160" fill="none" xmlns="http://www.w3.org/2000/svg">
<g style="mix-blend-mode:luminosity" opacity="0.7" clip-path="url(#clip0)">
<path opacity="0.18" d="M141.348 152.65C136.674 153.186 132 153.641 127.326 154.043C127.379 154.156 127.442 154.264 127.515 154.365C128.001 155.088 129.001 155.222 129.838 155.571C130.676 155.919 131.432 156.911 130.892 157.607C130.622 157.956 130.136 158.063 129.703 158.117L124.867 158.92C118.977 159.885 112.763 160.85 107.198 158.733C104.901 157.849 104.739 156.535 105.523 155.437C75.6143 156.723 45.5709 155.732 15.6086 154.767C13.177 154.767 10.4482 154.124 9.7998 151.685C25.2268 144.798 40.1944 144.772 56.9182 144.316L115.681 142.762C116.681 142.735 117.762 142.735 118.626 143.244C119.491 143.753 119.977 144.772 120.706 145.522C122.868 147.746 126.488 147.291 129.595 147.049C134.131 146.721 138.687 147.295 142.996 148.738C143.59 148.925 144.239 149.193 144.536 149.729C145.346 151.23 143.05 152.462 141.348 152.65Z" fill="#1D2741"/>
<path opacity="0.18" d="M62.78 0.549554C54.8909 2.18418 47.9475 6.84687 41.9496 12.1795C35.9517 17.5121 30.6022 23.5682 24.4693 28.7669C14.9862 36.8328 2.8283 44.068 0.423745 56.2339C-1.49449 65.988 3.69286 75.7421 3.93602 85.6839C4.0711 93.2138 1.39637 100.503 0.829007 108.006C0.26164 115.402 1.96374 123.227 6.8539 128.827C13.8244 136.813 25.7661 138.688 36.33 137.188C46.8938 135.687 56.8362 131.4 67.2379 129.122C79.774 126.389 92.8235 126.603 105.603 127.97C113.411 128.8 121.597 130.006 128.946 127.219C135.484 124.754 140.644 119.234 143.13 112.749C145.616 106.264 145.535 98.9484 143.4 92.3563C140.455 83.2185 133.944 75.6618 129.783 67.0063C126.244 59.6371 124.488 51.598 122.543 43.666C121.246 38.4138 119.787 32.974 116.194 28.9009C112.114 24.2114 105.927 22.0408 100.442 19.0663C87.1768 11.8847 80.0982 -3.04125 62.78 0.549554Z" fill="#E31E24"/>
<path d="M32.3315 9.79462H79.1797V153.105H32.3315C30.0672 153.105 27.8956 152.213 26.2945 150.625C24.6934 149.037 23.7939 146.883 23.7939 144.638V18.2625C23.7939 16.0167 24.6934 13.8628 26.2945 12.2748C27.8956 10.6868 30.0672 9.79462 32.3315 9.79462Z" fill="#E31E24"/>
<path d="M32.3315 9.79462H79.1797V153.105H32.3315C30.0672 153.105 27.8956 152.213 26.2945 150.625C24.6934 149.037 23.7939 146.883 23.7939 144.638V18.2625C23.7939 16.0167 24.6934 13.8628 26.2945 12.2748C27.8956 10.6868 30.0672 9.79462 32.3315 9.79462Z" fill="url(#paint0_linear)"/>
<path d="M37.5189 9.79462H99.2538C101.927 9.79462 104.49 10.8477 106.38 12.7222C108.27 14.5967 109.331 17.139 109.331 19.7899V143.11C109.331 145.761 108.27 148.303 106.38 150.178C104.49 152.052 101.927 153.105 99.2538 153.105H37.5189C34.8462 153.105 32.2829 152.052 30.393 150.178C28.5031 148.303 27.4414 145.761 27.4414 143.11V19.7899C27.4414 17.139 28.5031 14.5967 30.393 12.7222C32.2829 10.8477 34.8462 9.79462 37.5189 9.79462Z" fill="#E31E24"/>
<path d="M105.739 18.3961V137.59C105.731 138.931 105.191 140.215 104.235 141.163C103.279 142.111 101.984 142.647 100.632 142.654H36.1416C34.7911 142.65 33.4975 142.114 32.5451 141.164C31.5927 140.215 31.0594 138.929 31.0623 137.59V18.3961C31.0594 17.0567 31.5927 15.7709 32.5451 14.8212C33.4975 13.8716 34.7911 13.3357 36.1416 13.3315H48.8938V14.9125C48.8938 16.2628 49.4346 17.5579 50.3973 18.5127C51.36 19.4675 52.6657 20.004 54.0271 20.004H82.6386C84 20.004 85.3057 19.4675 86.2684 18.5127C87.2311 17.5579 87.7719 16.2628 87.7719 14.9125V13.3315H100.632C101.303 13.3308 101.967 13.4613 102.587 13.7156C103.207 13.9698 103.77 14.3429 104.245 14.8133C104.719 15.2837 105.095 15.8424 105.351 16.4571C105.608 17.0719 105.739 17.7308 105.739 18.3961Z" fill="white"/>
<path d="M60.9977 13.7607H75.7763C75.8652 13.76 75.9533 13.7768 76.0356 13.8102C76.1178 13.8437 76.1926 13.893 76.2555 13.9553C76.3183 14.0177 76.368 14.0918 76.4017 14.1734C76.4354 14.255 76.4524 14.3425 76.4517 14.4306V14.5646C76.4524 14.6528 76.4354 14.7402 76.4017 14.8218C76.368 14.9034 76.3183 14.9776 76.2555 15.0399C76.1926 15.1023 76.1178 15.1516 76.0356 15.185C75.9533 15.2184 75.8652 15.2353 75.7763 15.2345H60.9977C60.9088 15.2353 60.8207 15.2184 60.7384 15.185C60.6561 15.1516 60.5814 15.1023 60.5185 15.0399C60.4556 14.9776 60.4059 14.9034 60.3722 14.8218C60.3385 14.7402 60.3216 14.6528 60.3223 14.5646V14.4306C60.3251 14.2538 60.3971 14.085 60.5232 13.96C60.6493 13.8349 60.8195 13.7635 60.9977 13.7607Z" fill="url(#paint1_linear)"/>
<path d="M100.146 13.3315V121.083C100.143 123.505 99.1715 125.828 97.4444 127.541C95.7172 129.254 93.3755 130.218 90.933 130.22H31.0623V18.3961C31.0594 17.0567 31.5927 15.7709 32.5451 14.8212C33.4975 13.8716 34.7911 13.3357 36.1416 13.3315H48.8938V14.9125C48.8938 16.2628 49.4346 17.5579 50.3973 18.5127C51.36 19.4675 52.6657 20.004 54.0271 20.004H82.6386C84 20.004 85.3057 19.4675 86.2684 18.5127C87.2311 17.5579 87.7719 16.2628 87.7719 14.9125V13.3315H100.146Z" fill="#EBEBF0"/>
<path d="M45.7867 60.8431H121.598C122.909 60.8438 124.166 61.3607 125.093 62.2802C126.02 63.1997 126.541 64.4466 126.542 65.7469V84.2637C126.541 85.5641 126.02 86.811 125.093 87.7305C124.166 88.65 122.909 89.1669 121.598 89.1676H45.7867C44.4757 89.1669 43.2185 88.65 42.2914 87.7305C41.3644 86.811 40.8432 85.5641 40.8425 84.2637V65.7469C40.8432 64.4466 41.3644 63.1997 42.2914 62.2802C43.2185 61.3607 44.4757 60.8438 45.7867 60.8431Z" fill="#E31E24"/>
<path d="M45.7867 60.8431H121.598C122.909 60.8438 124.166 61.3607 125.093 62.2802C126.02 63.1997 126.541 64.4466 126.542 65.7469V84.2637C126.541 85.5641 126.02 86.811 125.093 87.7305C124.166 88.65 122.909 89.1669 121.598 89.1676H45.7867C44.4757 89.1669 43.2185 88.65 42.2914 87.7305C41.3644 86.811 40.8432 85.5641 40.8425 84.2637V65.7469C40.8432 64.4466 41.3644 63.1997 42.2914 62.2802C43.2185 61.3607 44.4757 60.8438 45.7867 60.8431Z" fill="url(#paint2_linear)"/>
<path d="M47.2723 59.0739H123.083C124.394 59.0746 125.652 59.5914 126.579 60.5109C127.506 61.4304 128.027 62.6774 128.027 63.9777V82.4945C128.027 83.7949 127.506 85.0418 126.579 85.9613C125.652 86.8808 124.394 87.3977 123.083 87.3984H47.2723C45.9613 87.3977 44.7041 86.8808 43.777 85.9613C42.85 85.0418 42.3288 83.7949 42.3281 82.4945V63.9777C42.3288 62.6774 42.85 61.4304 43.777 60.5109C44.7041 59.5914 45.9613 59.0746 47.2723 59.0739Z" fill="white"/>
<path d="M51.4872 27.5612H38.6809V40.263H51.4872V27.5612Z" fill="white"/>
<path d="M50.0819 64.2728H63.0503C63.731 64.2728 64.3838 64.541 64.8652 65.0185C65.3465 65.4959 65.6169 66.1434 65.6169 66.8186V79.6812C65.6169 80.0155 65.5505 80.3465 65.4215 80.6554C65.2926 80.9643 65.1035 81.2449 64.8652 81.4813C64.6268 81.7177 64.3439 81.9052 64.0325 82.0331C63.7211 82.1611 63.3873 82.2269 63.0503 82.2269H50.0819C49.7448 82.2269 49.4111 82.1611 49.0997 82.0331C48.7883 81.9052 48.5053 81.7177 48.267 81.4813C48.0286 81.2449 47.8396 80.9643 47.7106 80.6554C47.5816 80.3465 47.5152 80.0155 47.5152 79.6812V66.8186C47.5127 66.4836 47.5774 66.1514 47.7055 65.8414C47.8336 65.5314 48.0225 65.2498 48.2614 65.0129C48.5002 64.776 48.7841 64.5886 49.0967 64.4615C49.4092 64.3345 49.7441 64.2703 50.0819 64.2728Z" fill="#EBEBF0"/>
<path d="M51.4872 43.317H38.6809V56.0188H51.4872V43.317Z" fill="white"/>
<path d="M51.4872 93.4276H38.6809V106.129H51.4872V93.4276Z" fill="white"/>
<path d="M51.4872 109.185H38.6809V121.886H51.4872V109.185Z" fill="white"/>
<path opacity="0.38" d="M65.591 77.2966V79.6816C65.591 80.0159 65.5246 80.3469 65.3956 80.6558C65.2666 80.9646 65.0775 81.2453 64.8392 81.4817C64.6009 81.7181 64.3179 81.9056 64.0065 82.0335C63.6951 82.1614 63.3614 82.2273 63.0243 82.2273H50.0559C49.7189 82.2273 49.3851 82.1614 49.0737 82.0335C48.7623 81.9056 48.4794 81.7181 48.241 81.4817C48.0027 81.2453 47.8136 80.9646 47.6846 80.6558C47.5556 80.3469 47.4893 80.0159 47.4893 79.6816V77.2966C49.6481 75.8771 52.0901 74.9357 54.6489 74.5365C53.9063 74.1239 53.3232 73.478 52.9913 72.7006C52.6594 71.9232 52.5976 71.0584 52.8156 70.2423C53.0336 69.4262 53.519 68.7052 54.1955 68.1928C54.8719 67.6804 55.701 67.4056 56.5521 67.4118C57.4033 67.4179 58.2282 67.7047 58.897 68.2268C59.5659 68.749 60.0406 69.477 60.2466 70.2961C60.4525 71.1152 60.378 71.9791 60.0347 72.7516C59.6914 73.5241 59.0988 74.1615 58.3503 74.5633C62.1868 75.1797 65.591 77.2966 65.591 77.2966Z" fill="white"/>
<path d="M121.625 67.4083H72.7231C72.5082 67.4083 72.302 67.3236 72.15 67.1729C71.998 67.0221 71.9126 66.8176 71.9126 66.6044C71.9126 66.3912 71.998 66.1867 72.15 66.0359C72.302 65.8852 72.5082 65.8005 72.7231 65.8005H121.625C121.84 65.8005 122.046 65.8852 122.198 66.0359C122.35 66.1867 122.435 66.3912 122.435 66.6044C122.435 66.8176 122.35 67.0221 122.198 67.1729C122.046 67.3236 121.84 67.4083 121.625 67.4083Z" fill="#EBEBF0"/>
<path d="M56.2694 30.8837H102.091C102.292 30.8837 102.484 30.9627 102.626 31.1034C102.768 31.2441 102.848 31.435 102.848 31.634C102.848 31.833 102.768 32.0238 102.626 32.1645C102.484 32.3052 102.292 32.3843 102.091 32.3843H56.2694C56.1701 32.3843 56.0717 32.3649 55.9799 32.3272C55.8882 32.2895 55.8048 32.2342 55.7345 32.1645C55.6643 32.0949 55.6085 32.0121 55.5705 31.9211C55.5325 31.8301 55.5129 31.7325 55.5129 31.634C55.5129 31.5354 55.5325 31.4379 55.5705 31.3469C55.6085 31.2558 55.6643 31.1731 55.7345 31.1034C55.8048 31.0338 55.8882 30.9785 55.9799 30.9408C56.0717 30.9031 56.1701 30.8837 56.2694 30.8837Z" fill="white"/>
<path d="M102.091 37.4757H56.2694C56.1701 37.4757 56.0717 37.4563 55.9799 37.4186C55.8882 37.3809 55.8048 37.3256 55.7345 37.256C55.6643 37.1863 55.6085 37.1036 55.5705 37.0126C55.5325 36.9215 55.5129 36.824 55.5129 36.7254C55.5129 36.6269 55.5325 36.5293 55.5705 36.4383C55.6085 36.3472 55.6643 36.2645 55.7345 36.1949C55.8048 36.1252 55.8882 36.0699 55.9799 36.0322C56.0717 35.9945 56.1701 35.9751 56.2694 35.9751H102.091C102.292 35.9751 102.484 36.0541 102.626 36.1949C102.768 36.3356 102.848 36.5264 102.848 36.7254C102.843 36.9231 102.762 37.1116 102.621 37.2514C102.48 37.3913 102.29 37.4716 102.091 37.4757Z" fill="white"/>
<path d="M102.091 47.712H56.2694C56.1701 47.712 56.0717 47.6925 55.9799 47.6548C55.8882 47.6171 55.8048 47.5619 55.7345 47.4922C55.6643 47.4225 55.6085 47.3398 55.5705 47.2488C55.5325 47.1577 55.5129 47.0602 55.5129 46.9616C55.5129 46.8631 55.5325 46.7655 55.5705 46.6745C55.6085 46.5835 55.6643 46.5007 55.7345 46.4311C55.8048 46.3614 55.8882 46.3061 55.9799 46.2684C56.0717 46.2307 56.1701 46.2113 56.2694 46.2113H102.091C102.292 46.2113 102.484 46.2904 102.626 46.4311C102.768 46.5718 102.848 46.7626 102.848 46.9616C102.843 47.1593 102.762 47.3478 102.621 47.4876C102.48 47.6275 102.29 47.7078 102.091 47.712Z" fill="white"/>
<path d="M102.091 52.0268H56.2694C56.1701 52.0268 56.0717 52.0074 55.9799 51.9696C55.8882 51.9319 55.8048 51.8767 55.7345 51.807C55.6643 51.7373 55.6085 51.6546 55.5705 51.5636C55.5325 51.4725 55.5129 51.375 55.5129 51.2764C55.5129 51.1779 55.5325 51.0803 55.5705 50.9893C55.6085 50.8983 55.6643 50.8156 55.7345 50.7459C55.8048 50.6762 55.8882 50.6209 55.9799 50.5832C56.0717 50.5455 56.1701 50.5261 56.2694 50.5261H102.091C102.292 50.5261 102.484 50.6052 102.626 50.7459C102.768 50.8866 102.848 51.0774 102.848 51.2764C102.843 51.4742 102.762 51.6626 102.621 51.8025C102.48 51.9423 102.29 52.0227 102.091 52.0268Z" fill="white"/>
<path d="M102.091 98.3856H56.2694C56.1701 98.3856 56.0717 98.3662 55.9799 98.3285C55.8882 98.2908 55.8048 98.2355 55.7345 98.1658C55.6643 98.0962 55.6085 98.0134 55.5705 97.9224C55.5325 97.8314 55.5129 97.7338 55.5129 97.6353C55.5129 97.5367 55.5325 97.4392 55.5705 97.3481C55.6085 97.2571 55.6643 97.1744 55.7345 97.1047C55.8048 97.035 55.8882 96.9798 55.9799 96.9421C56.0717 96.9044 56.1701 96.8849 56.2694 96.8849H102.091C102.292 96.8849 102.484 96.964 102.626 97.1047C102.768 97.2454 102.848 97.4363 102.848 97.6353C102.843 97.833 102.762 98.0214 102.621 98.1613C102.48 98.3011 102.29 98.3815 102.091 98.3856Z" fill="white"/>
<path d="M102.091 102.699H56.2694C56.1701 102.699 56.0717 102.68 55.9799 102.642C55.8882 102.605 55.8048 102.549 55.7345 102.48C55.6643 102.41 55.6085 102.327 55.5705 102.236C55.5325 102.145 55.5129 102.048 55.5129 101.949C55.5129 101.851 55.5325 101.753 55.5705 101.662C55.6085 101.571 55.6643 101.488 55.7345 101.419C55.8048 101.349 55.8882 101.294 55.9799 101.256C56.0717 101.218 56.1701 101.199 56.2694 101.199H102.091C102.292 101.199 102.484 101.278 102.626 101.419C102.768 101.559 102.848 101.75 102.848 101.949C102.843 102.147 102.762 102.335 102.621 102.475C102.48 102.615 102.29 102.695 102.091 102.699Z" fill="white"/>
<path d="M102.091 114.142H56.2694C56.1701 114.142 56.0717 114.123 55.9799 114.085C55.8882 114.048 55.8048 113.992 55.7345 113.923C55.6643 113.853 55.6085 113.77 55.5705 113.679C55.5325 113.588 55.5129 113.491 55.5129 113.392C55.5129 113.294 55.5325 113.196 55.5705 113.105C55.6085 113.014 55.6643 112.931 55.7345 112.862C55.8048 112.792 55.8882 112.737 55.9799 112.699C56.0717 112.661 56.1701 112.642 56.2694 112.642H102.091C102.19 112.642 102.289 112.661 102.381 112.699C102.472 112.737 102.556 112.792 102.626 112.862C102.696 112.931 102.752 113.014 102.79 113.105C102.828 113.196 102.848 113.294 102.848 113.392C102.843 113.59 102.762 113.778 102.621 113.918C102.48 114.058 102.29 114.138 102.091 114.142Z" fill="white"/>
<path d="M102.091 118.456H56.2694C56.1701 118.456 56.0717 118.437 55.9799 118.399C55.8882 118.361 55.8048 118.306 55.7345 118.236C55.6643 118.167 55.6085 118.084 55.5705 117.993C55.5325 117.902 55.5129 117.804 55.5129 117.706C55.5129 117.607 55.5325 117.51 55.5705 117.419C55.6085 117.328 55.6643 117.245 55.7345 117.175C55.8048 117.106 55.8882 117.05 55.9799 117.013C56.0717 116.975 56.1701 116.956 56.2694 116.956H102.091C102.292 116.956 102.484 117.035 102.626 117.175C102.768 117.316 102.848 117.507 102.848 117.706C102.843 117.904 102.762 118.092 102.621 118.232C102.48 118.372 102.29 118.452 102.091 118.456Z" fill="white"/>
<path d="M121.625 72.5804H72.7231C72.5082 72.5804 72.302 72.4957 72.15 72.3449C71.998 72.1941 71.9126 71.9897 71.9126 71.7764C71.9126 71.5632 71.998 71.3588 72.15 71.208C72.302 71.0572 72.5082 70.9725 72.7231 70.9725H121.625C121.84 70.9725 122.046 71.0572 122.198 71.208C122.35 71.3588 122.435 71.5632 122.435 71.7764C122.435 71.9897 122.35 72.1941 122.198 72.3449C122.046 72.4957 121.84 72.5804 121.625 72.5804Z" fill="#EBEBF0"/>
<path d="M121.625 77.7514H72.7231C72.5082 77.7514 72.302 77.6667 72.15 77.5159C71.998 77.3651 71.9126 77.1607 71.9126 76.9475C71.9126 76.7343 71.998 76.5298 72.15 76.379C72.302 76.2282 72.5082 76.1436 72.7231 76.1436H121.625C121.84 76.1436 122.046 76.2282 122.198 76.379C122.35 76.5298 122.435 76.7343 122.435 76.9475C122.435 77.1607 122.35 77.3651 122.198 77.5159C122.046 77.6667 121.84 77.7514 121.625 77.7514Z" fill="#EBEBF0"/>
<path d="M112.33 112.803L109.25 135.044C109.119 135.983 109.221 136.94 109.547 137.831L115.059 153.909L118.274 152.918L115.842 136.92C115.793 136.589 115.811 136.252 115.897 135.929L120.084 121.619L121.894 153.883H124.866L127.433 122.021C128.298 116.715 126.703 112.776 126.703 112.776L112.33 112.803Z" fill="#3F3D56"/>
<path d="M128.109 93.1866V108.461C128.109 110.337 127.811 111.837 125.92 111.837H112.736C110.844 111.837 110.79 110.337 110.763 108.461L110.655 98.0637C110.655 98.0637 107.819 103.102 105.549 102.619C103.28 102.137 96.5522 92.9186 96.5522 92.9186L99.9024 90.1317L105.549 95.7591C105.549 95.7591 106.468 93.7225 107.764 89.1402C109.061 84.5579 113.384 84.5311 113.384 84.5311H124.84C128.973 84.5311 128.109 93.1866 128.109 93.1866Z" fill="#E31E24"/>
<path d="M128.028 77.7513C128.028 77.7513 132.216 86.2728 132.432 89.1937C132.648 92.1146 128.163 96.0537 128.163 96.0537L124.813 84.531H128.001V77.7513H128.028Z" fill="#E31E24"/>
<path d="M128.028 77.7513C128.028 77.7513 132.216 86.2728 132.432 89.1937C132.648 92.1146 128.163 96.0537 128.163 96.0537L124.813 84.531H128.001V77.7513H128.028Z" fill="url(#paint3_linear)"/>
<path d="M128.19 96.0546C128.19 96.0546 130.919 88.605 130.622 86.9167C130.325 85.2285 128.028 79.8155 128.028 79.8155V84.5586L124.002 84.639L128.19 96.0546Z" fill="#E31E24"/>
<path d="M126.704 111.757H112.331V112.803H126.704V111.757Z" fill="#E31E24"/>
<path d="M126.704 111.757H112.331V112.803H126.704V111.757Z" fill="url(#paint4_linear)"/>
<path d="M121.354 74.161H117.22V84.6119H121.354V74.161Z" fill="url(#paint5_linear)"/>
<path d="M121.354 73.0085V84.6117H119.166V83.915C119.166 83.5027 119.001 83.1074 118.707 82.8159C118.413 82.5245 118.015 82.3607 117.599 82.3607H117.464C116.947 82.3632 116.436 82.2646 115.958 82.0705C115.48 81.8764 115.045 81.5908 114.679 81.2298C114.312 80.8689 114.021 80.4397 113.822 79.967C113.623 79.4943 113.52 78.9874 113.519 78.4751V73.0353H121.354V73.0085Z" fill="url(#paint6_linear)"/>
<path d="M114.572 69.4718C115.437 68.9895 116.491 68.9359 117.517 68.9091L119.652 68.8555C120.13 68.8332 120.609 68.8511 121.084 68.9091C121.54 68.9838 121.977 69.1472 122.369 69.3898C122.762 69.6325 123.102 69.9497 123.371 70.3232C123.64 70.6966 123.831 71.1191 123.935 71.5662C124.038 72.0133 124.052 72.4763 123.974 72.9286C123.927 73.1765 123.855 73.4189 123.758 73.6522C123.676 73.8212 123.621 74.0021 123.596 74.1881C123.642 74.481 123.743 74.7627 123.893 75.0188C124.191 75.8227 123.704 76.6802 123.164 77.3234C122.624 77.9665 121.975 78.6364 121.894 79.4939C121.867 79.7619 121.894 80.0835 121.705 80.2978C121.589 80.4031 121.439 80.4658 121.282 80.4755C121.125 80.4853 120.969 80.4415 120.84 80.3514C120.593 80.1652 120.39 79.9274 120.246 79.6547C120.273 80.0567 119.706 80.271 119.354 80.0835C119.189 79.9703 119.051 79.8231 118.948 79.652C118.846 79.4809 118.782 79.2899 118.76 79.092C118.713 78.6987 118.594 78.3172 118.409 77.9665C118.22 77.6985 117.923 77.5109 117.841 77.1894C117.679 76.6534 118.22 76.0639 118.004 75.528C117.841 75.0992 117.22 74.9652 116.788 75.1528C116.374 75.3803 116.029 75.7133 115.788 76.1175C116.193 75.5816 115.869 74.6704 115.437 74.2417C114.761 73.5182 113.762 74.1345 113.194 73.6254C112.141 72.6071 113.627 70.0078 114.572 69.4718Z" fill="#3F3D56"/>
<path opacity="0.25" d="M120.436 84.5847C120.436 84.5847 118.815 86.6749 116.599 86.6749C114.384 86.6749 107.873 92.999 107.441 94.9016C107.008 96.8042 105.549 95.7592 105.549 95.7592C105.549 95.7592 106.468 93.7226 107.765 89.1403C109.062 84.5579 113.384 84.5311 113.384 84.5311H119.22L120.436 84.5847Z" fill="white"/>
<path d="M118.247 152.649L119.382 155.409L114.816 157.553L110.574 157.848C110.574 157.848 109.845 155.088 111.817 154.846C112.969 154.716 114.068 154.291 115.005 153.614L118.247 152.649Z" fill="#222A72"/>
<path d="M121.868 153.882C121.294 154.121 120.796 154.508 120.425 155.003C120.054 155.498 119.825 156.082 119.76 156.696L119.652 157.848H124.839V153.882H121.868Z" fill="#222A72"/>
<path d="M99.8751 90.1582L97.6867 87.4785C97.6867 87.4785 96.9302 84.6112 96.5249 86.3798C96.2818 87.3713 95.6333 89.1667 95.6333 89.1667H92.2832C92.2832 89.1667 94.6337 91.6321 95.6333 92.0876C96.0897 92.2865 96.5715 92.4217 97.0653 92.4896L99.8751 90.1582Z" fill="url(#paint7_linear)"/>
</g>
<defs>
<linearGradient id="paint0_linear" x1="-15.765" y1="176.553" x2="98.8029" y2="16.8193" gradientUnits="userSpaceOnUse">
<stop stop-opacity="0"/>
<stop offset="0.85" stop-opacity="0.51"/>
<stop offset="0.99"/>
</linearGradient>
<linearGradient id="paint1_linear" x1="4147.52" y1="281.647" x2="4147.45" y2="313.489" gradientUnits="userSpaceOnUse">
<stop stop-opacity="0"/>
<stop offset="0.85" stop-opacity="0.51"/>
<stop offset="0.99"/>
</linearGradient>
<linearGradient id="paint2_linear" x1="26613.7" y1="11073.1" x2="26605.8" y2="16217.3" gradientUnits="userSpaceOnUse">
<stop stop-opacity="0"/>
<stop offset="0.85" stop-opacity="0.51"/>
<stop offset="0.99"/>
</linearGradient>
<linearGradient id="paint3_linear" x1="4482.24" y1="-524.734" x2="5882.43" y2="-1418.96" gradientUnits="userSpaceOnUse">
<stop stop-opacity="0"/>
<stop offset="0.85" stop-opacity="0.51"/>
<stop offset="0.99"/>
</linearGradient>
<linearGradient id="paint4_linear" x1="6445.94" y1="541.303" x2="6446.35" y2="566.97" gradientUnits="userSpaceOnUse">
<stop stop-opacity="0"/>
<stop offset="0.85" stop-opacity="0.51"/>
<stop offset="0.99"/>
</linearGradient>
<linearGradient id="paint5_linear" x1="118.004" y1="79.4106" x2="124.81" y2="79.2853" gradientUnits="userSpaceOnUse">
<stop stop-color="#ECC4D7"/>
<stop offset="0.42" stop-color="#EFD4D1"/>
<stop offset="1" stop-color="#F2EAC9"/>
</linearGradient>
<linearGradient id="paint6_linear" x1="4672.67" y1="-1533.76" x2="4626.5" y2="-1517.24" gradientUnits="userSpaceOnUse">
<stop stop-color="#ECC4D7"/>
<stop offset="0.42" stop-color="#EFD4D1"/>
<stop offset="1" stop-color="#F2EAC9"/>
</linearGradient>
<linearGradient id="paint7_linear" x1="3774.84" y1="-608.789" x2="3988.47" y2="-608.789" gradientUnits="userSpaceOnUse">
<stop stop-color="#ECC4D7"/>
<stop offset="0.42" stop-color="#EFD4D1"/>
<stop offset="1" stop-color="#F2EAC9"/>
</linearGradient>
<clipPath id="clip0">
<rect width="145" height="160" fill="white"/>
</clipPath>
</defs>
</svg>
